\relax 
\@writefile{toc}{\contentsline {chapter}{\numberline {VI}Kesimpulan}{48}}
\@writefile{lof}{\addvspace {10\p@ }}
\@writefile{lot}{\addvspace {10\p@ }}
\@writefile{toc}{\contentsline {section}{\numberline {6.1}Kesimpulan Masalah}{48}}
\@writefile{toc}{\contentsline {section}{\numberline {6.2}Kesimpulan Metodologi}{48}}
\@writefile{toc}{\contentsline {section}{\numberline {6.3}Kesimpulan Pengujian}{48}}
\@setckpt{section/chapter6}{
\setcounter{page}{50}
\setcounter{equation}{0}
\setcounter{enumi}{3}
\setcounter{enumii}{0}
\setcounter{enumiii}{0}
\setcounter{enumiv}{0}
\setcounter{footnote}{0}
\setcounter{mpfootnote}{0}
\setcounter{part}{0}
\setcounter{chapter}{6}
\setcounter{section}{3}
\setcounter{subsection}{0}
\setcounter{subsubsection}{0}
\setcounter{paragraph}{0}
\setcounter{subparagraph}{0}
\setcounter{figure}{0}
\setcounter{table}{0}
\setcounter{caption@flags}{0}
\setcounter{ContinuedFloat}{0}
\setcounter{lstnumber}{1}
\setcounter{LT@tables}{1}
\setcounter{LT@chunks}{1}
\setcounter{lstlisting}{0}
}
