\relax 
\citation{kuncahyo2013analisa}
\citation{wanto2017analisis}
\citation{nurmahaludin2014perbandingan}
\citation{irayanti2014analisis}
\citation{fao2019maize}
\@writefile{toc}{\contentsline {chapter}{\numberline {II}Landasan Teori}{4}}
\@writefile{lof}{\addvspace {10\p@ }}
\@writefile{lot}{\addvspace {10\p@ }}
\@writefile{toc}{\contentsline {section}{\numberline {2.1}Deskripsi Teori Yang Sama}{4}}
\@writefile{toc}{\contentsline {subsection}{\numberline {2.1.1}Prediksi}{4}}
\@writefile{toc}{\contentsline {subsection}{\numberline {2.1.2}Asumsi Klasik}{4}}
\@writefile{toc}{\contentsline {subsection}{\numberline {2.1.3}Tanaman}{4}}
\citation{aldillah2015proyeksi}
\citation{rosadi2014sistem}
\citation{ridwan2013penerapan}
\@writefile{toc}{\contentsline {subsection}{\numberline {2.1.4}Produksi}{5}}
\@writefile{toc}{\contentsline {subsection}{\numberline {2.1.5}Padi}{5}}
\@writefile{toc}{\contentsline {subsection}{\numberline {2.1.6}Data Mining}{5}}
\citation{prasetyo2013101}
\citation{putri2017analisa}
\citation{putri2017analisa}
\citation{permai2018linear}
\citation{kurniawan2016analisis}
\citation{permatasari2015pemodelan}
\@writefile{toc}{\contentsline {subsection}{\numberline {2.1.7}PHP}{6}}
\@writefile{toc}{\contentsline {section}{\numberline {2.2}Deskripsi Metode Yang Sama}{6}}
\@writefile{toc}{\contentsline {subsection}{\numberline {2.2.1}Metode Penelitian}{6}}
\@writefile{toc}{\contentsline {subsubsection}{\numberline {2.2.1.1}Regresi Linear}{6}}
\@writefile{toc}{\contentsline {subsection}{\numberline {2.2.2}Regresi Linear Sederhana}{6}}
\citation{gustriansyah2017analisis}
\@writefile{toc}{\contentsline {subsection}{\numberline {2.2.3}\textit  {Exponential Smoothing}}{7}}
\citation{hutahaean2015konsep}
\citation{emberson2014effect}
\citation{yusuf2016metode}
\@writefile{toc}{\contentsline {subsection}{\numberline {2.2.4}Studi Kepustakaan}{8}}
\@writefile{toc}{\contentsline {subsection}{\numberline {2.2.5}Metode Pengumpulan Data}{8}}
\@writefile{toc}{\contentsline {subsubsection}{\numberline {2.2.5.1}Data}{8}}
\@writefile{toc}{\contentsline {subsubsection}{\numberline {2.2.5.2}Jenis Data}{8}}
\@writefile{toc}{\contentsline {subsubsection}{\numberline {2.2.5.3}Sumber Data}{8}}
\@writefile{toc}{\contentsline {subsubsection}{\numberline {2.2.5.4}Metode Pengolahan Data}{8}}
\@writefile{toc}{\contentsline {subsubsection}{\numberline {2.2.5.5}Membuat Kesimpulan}{8}}
\citation{balin2018peramalan}
\citation{octavia2015peramalan}
\citation{kholifah2018rancang}
\citation{rosikin2015aplikasi}
\citation{ningrum2016perancangan}
\@writefile{toc}{\contentsline {section}{\numberline {2.3}Studi Pustaka}{9}}
\@setckpt{section/chapter2}{
\setcounter{page}{11}
\setcounter{equation}{5}
\setcounter{enumi}{5}
\setcounter{enumii}{0}
\setcounter{enumiii}{0}
\setcounter{enumiv}{0}
\setcounter{footnote}{0}
\setcounter{mpfootnote}{0}
\setcounter{part}{0}
\setcounter{chapter}{2}
\setcounter{section}{3}
\setcounter{subsection}{0}
\setcounter{subsubsection}{0}
\setcounter{paragraph}{0}
\setcounter{subparagraph}{0}
\setcounter{figure}{0}
\setcounter{table}{0}
\setcounter{caption@flags}{0}
\setcounter{ContinuedFloat}{0}
\setcounter{lstnumber}{1}
\setcounter{LT@tables}{1}
\setcounter{LT@chunks}{1}
\setcounter{lstlisting}{0}
}
