\relax 
\@writefile{toc}{\contentsline {chapter}{\numberline {V}Pengujian Dan Hasil}{19}}
\@writefile{lof}{\addvspace {10\p@ }}
\@writefile{lot}{\addvspace {10\p@ }}
\@writefile{toc}{\contentsline {section}{\numberline {5.1}Pengujian}{19}}
\@writefile{lot}{\contentsline {table}{\numberline {5.1}{\ignorespaces Data Produksi Padi\relax }}{19}}
\@writefile{lof}{\contentsline {figure}{\numberline {5.1}{\ignorespaces Data Produksi Padi\relax }}{20}}
\@writefile{toc}{\contentsline {subsection}{\numberline {5.1.1}Regresi Linear}{20}}
\@writefile{toc}{\contentsline {subsubsection}{\numberline {5.1.1.1}Mengidentifikasi Variabel}{20}}
\@writefile{toc}{\contentsline {subsection}{\numberline {5.1.2}Membuat Tabel}{20}}
\@writefile{toc}{\contentsline {subsection}{\numberline {5.1.3}Menghitung koefisien (a) dan (b)}{20}}
\@writefile{lot}{\contentsline {table}{\numberline {5.2}{\ignorespaces Perhitungan Kuadrat\relax }}{21}}
\@writefile{toc}{\contentsline {subsection}{\numberline {5.1.4}Melakukan Peramalan}{21}}
\@writefile{toc}{\contentsline {subsection}{\numberline {5.1.5}Menghitung Hasil MSE}{22}}
\@writefile{toc}{\contentsline {section}{\numberline {5.2}\textit  {Exponential Smoothing}}{22}}
\@writefile{toc}{\contentsline {subsection}{\numberline {5.2.1}Menghitung Exponential Tunggal}{22}}
\@writefile{toc}{\contentsline {subsection}{\numberline {5.2.2}Menghitung \textit  {Exponential} Ganda}{23}}
\@writefile{toc}{\contentsline {subsection}{\numberline {5.2.3}Menghitung Koefisien A Dan B}{24}}
\@writefile{toc}{\contentsline {subsection}{\numberline {5.2.4}Menghitung Tren Peramalan F}{25}}
\@writefile{toc}{\contentsline {subsection}{\numberline {5.2.5}Menghitung Nilai Kesalahan E}{26}}
\@writefile{toc}{\contentsline {subsection}{\numberline {5.2.6}Menghitung MSE}{27}}
\@writefile{lot}{\contentsline {table}{\numberline {5.3}{\ignorespaces Perbandingan Ukuran Ketepatan Metode Peramalan Nilai Jumlah Produksi Padi\relax }}{27}}
\@writefile{toc}{\contentsline {subsection}{\numberline {5.2.7}Penentuan bentuk peralaman Ft+m}{27}}
\@writefile{toc}{\contentsline {section}{\numberline {5.3}Hasil}{28}}
\@writefile{toc}{\contentsline {subsection}{\numberline {5.3.1}Perancangan Sistem}{28}}
\@writefile{toc}{\contentsline {subsection}{\numberline {5.3.2}\textit  {Use Case Diagram}}{28}}
\@writefile{toc}{\contentsline {subsection}{\numberline {5.3.3}Definisi \textit  {Use Case}}{29}}
\@writefile{toc}{\contentsline {subsubsection}{\numberline {5.3.3.1}Definisi Aktor dan \textit  {Use Case}}{29}}
\@writefile{toc}{\contentsline {subsection}{\numberline {5.3.4}Skenario \textit  {Use Case}}{29}}
\@writefile{toc}{\contentsline {subsubsection}{\numberline {5.3.4.1}Skenario \textit  {Use Case Login}}{29}}
\@writefile{toc}{\contentsline {subsubsection}{\numberline {5.3.4.2}Skenario Kelola Data Produksi}{29}}
\@writefile{toc}{\contentsline {subsubsection}{\numberline {5.3.4.3}Skenario Perhitungan}{29}}
\@writefile{toc}{\contentsline {subsubsection}{\numberline {5.3.4.4}Skenario Pilih Tahun Prediksi}{29}}
\@writefile{toc}{\contentsline {subsubsection}{\numberline {5.3.4.5}Skenario Grafik}{29}}
\@writefile{toc}{\contentsline {subsection}{\numberline {5.3.5}\textit  {Class Diagram}}{30}}
\@writefile{toc}{\contentsline {subsection}{\numberline {5.3.6}\textit  {Sequence Diagram}}{30}}
\@writefile{toc}{\contentsline {subsubsection}{\numberline {5.3.6.1}\textit  {Sequence Diagram Login}}{30}}
\@writefile{toc}{\contentsline {subsubsection}{\numberline {5.3.6.2}\textit  {Sequence Diagram} Data Produksi Padi}{30}}
\@writefile{toc}{\contentsline {subsubsection}{\numberline {5.3.6.3}\textit  {Sequence Diagram} Perhitungan}{30}}
\@writefile{toc}{\contentsline {subsubsection}{\numberline {5.3.6.4}\textit  {Sequence Diagram} Prediksi}{30}}
\@writefile{toc}{\contentsline {subsubsection}{\numberline {5.3.6.5}\textit  {Sequence Diagram} Grafik}{31}}
\@writefile{toc}{\contentsline {subsection}{\numberline {5.3.7}\textit  {Activity Diagram}}{31}}
\@writefile{toc}{\contentsline {subsubsection}{\numberline {5.3.7.1}\textit  {Activity Diagram }Data Produksi Padi}{31}}
\@writefile{toc}{\contentsline {subsubsection}{\numberline {5.3.7.2}\textit  {Activity Diagram }Perhitungan}{31}}
\@writefile{toc}{\contentsline {subsubsection}{\numberline {5.3.7.3}\textit  {Activity Diagram }Prediksi}{31}}
\@writefile{toc}{\contentsline {subsubsection}{\numberline {5.3.7.4}\textit  {Activity Diagram} Grafik}{32}}
\@writefile{toc}{\contentsline {subsection}{\numberline {5.3.8}\textit  {Component Diagram}}{32}}
\@writefile{toc}{\contentsline {subsection}{\numberline {5.3.9}\textit  {Deployment Diagram}}{32}}
\@writefile{toc}{\contentsline {section}{\numberline {5.4}\textit  {User Interface}}{32}}
\@writefile{toc}{\contentsline {subsection}{\numberline {5.4.1}\textit  {User Interface Login}}{32}}
\@writefile{toc}{\contentsline {subsection}{\numberline {5.4.2}\textit  {User Interface} Halaman Utama}{32}}
\@writefile{toc}{\contentsline {subsection}{\numberline {5.4.3}\textit  {User Interface} Kelola Data Produksi}{33}}
\@writefile{toc}{\contentsline {section}{\numberline {5.5}Implementasi}{33}}
\@writefile{toc}{\contentsline {subsection}{\numberline {5.5.1}Lingkungan Implementasi}{33}}
\@writefile{toc}{\contentsline {subsection}{\numberline {5.5.2}Tampilan Antar Muka}{34}}
\@writefile{toc}{\contentsline {subsubsection}{\numberline {5.5.2.1}Halaman Login}{34}}
\@writefile{toc}{\contentsline {subsubsection}{\numberline {5.5.2.2}Halaman Utama}{34}}
\@writefile{toc}{\contentsline {subsubsection}{\numberline {5.5.2.3}Halaman Kelola Data Produksi Padi}{34}}
\@writefile{toc}{\contentsline {subsubsection}{\numberline {5.5.2.4}Halaman Perhitungan}{34}}
\@writefile{toc}{\contentsline {subsubsection}{\numberline {5.5.2.5}Halaman Grafik}{34}}
\@writefile{toc}{\contentsline {subsubsection}{\numberline {5.5.2.6}Halaman Prediksi}{34}}
\@writefile{toc}{\contentsline {subsubsection}{\numberline {5.5.2.7}Halaman Hasil Prediksi}{35}}
\@writefile{toc}{\contentsline {subsection}{\numberline {5.5.3}Pengujian \textit  {Blackbox}}{35}}
\@writefile{toc}{\contentsline {subsubsection}{\numberline {5.5.3.1}Identifikasi dan Rencana Pengujian}{35}}
\newlabel{defaktor}{{\caption@xref {defaktor}{ on input line 631}}{35}}
\@writefile{lot}{\contentsline {table}{\numberline {5.4}{\ignorespaces Definisi Aktor\relax }}{35}}
\@writefile{lot}{\contentsline {table}{\numberline {5.5}{\ignorespaces Definisi \textit  {Use Case}\relax }}{36}}
\newlabel{defcase}{{5.5}{36}}
\newlabel{uscasdi}{{\caption@xref {uscasdi}{ on input line 839}}{36}}
\@writefile{lof}{\contentsline {figure}{\numberline {5.2}{\ignorespaces \textit  {Use Case Diagram}\relax }}{36}}
\@writefile{lot}{\contentsline {table}{\numberline {5.6}{\ignorespaces Skenario \textit  {Use Case Login}\relax }}{37}}
\@writefile{lot}{\contentsline {table}{\numberline {5.7}{\ignorespaces Skenario Kelola Data Produksi\relax }}{37}}
\@writefile{lot}{\contentsline {table}{\numberline {5.8}{\ignorespaces Skenario Perhitungan\relax }}{38}}
\@writefile{lot}{\contentsline {table}{\numberline {5.9}{\ignorespaces Skenario Prediksi\relax }}{38}}
\@writefile{lot}{\contentsline {table}{\numberline {5.10}{\ignorespaces Skenario Grafik\relax }}{39}}
\@writefile{lot}{\contentsline {table}{\numberline {5.11}{\ignorespaces Identifikasi dan rencana pengujian\relax }}{39}}
\newlabel{clasdi}{{\caption@xref {clasdi}{ on input line 846}}{40}}
\@writefile{lof}{\contentsline {figure}{\numberline {5.3}{\ignorespaces \textit  {Class Diagram}\relax }}{40}}
\newlabel{seqlo}{{\caption@xref {seqlo}{ on input line 853}}{40}}
\@writefile{lof}{\contentsline {figure}{\numberline {5.4}{\ignorespaces \textit  {Sequence Diagram Login}\relax }}{40}}
\newlabel{seqda}{{\caption@xref {seqda}{ on input line 860}}{41}}
\@writefile{lof}{\contentsline {figure}{\numberline {5.5}{\ignorespaces \textit  {Sequence Diagram} Data Produksi Padi\relax }}{41}}
\newlabel{seqper}{{\caption@xref {seqper}{ on input line 867}}{41}}
\@writefile{lof}{\contentsline {figure}{\numberline {5.6}{\ignorespaces \textit  {Sequence Diagram} Perhitungan\relax }}{41}}
\newlabel{seqpre}{{\caption@xref {seqpre}{ on input line 874}}{41}}
\@writefile{lof}{\contentsline {figure}{\numberline {5.7}{\ignorespaces \textit  {Sequence Diagram} Prediksi\relax }}{41}}
\newlabel{seqgra}{{\caption@xref {seqgra}{ on input line 881}}{41}}
\@writefile{lof}{\contentsline {figure}{\numberline {5.8}{\ignorespaces \textit  {Sequence Diagram} Grafik\relax }}{41}}
\newlabel{acda}{{\caption@xref {acda}{ on input line 888}}{42}}
\@writefile{lof}{\contentsline {figure}{\numberline {5.9}{\ignorespaces \textit  {Activity Diagram} Data Produksi Padi\relax }}{42}}
\newlabel{acper}{{\caption@xref {acper}{ on input line 895}}{42}}
\@writefile{lof}{\contentsline {figure}{\numberline {5.10}{\ignorespaces \textit  {Activity Diagram} Perhitungan\relax }}{42}}
\newlabel{acpre}{{\caption@xref {acpre}{ on input line 902}}{42}}
\@writefile{lof}{\contentsline {figure}{\numberline {5.11}{\ignorespaces \textit  {Activity Diagram} Prediksi\relax }}{42}}
\newlabel{acgra}{{\caption@xref {acgra}{ on input line 909}}{43}}
\@writefile{lof}{\contentsline {figure}{\numberline {5.12}{\ignorespaces \textit  {Activity Diagram} Grafik\relax }}{43}}
\newlabel{com}{{\caption@xref {com}{ on input line 916}}{43}}
\@writefile{lof}{\contentsline {figure}{\numberline {5.13}{\ignorespaces \textit  {Component Diagram }\relax }}{43}}
\newlabel{dep}{{\caption@xref {dep}{ on input line 923}}{43}}
\@writefile{lof}{\contentsline {figure}{\numberline {5.14}{\ignorespaces \textit  {Deployment Diagram}\relax }}{43}}
\newlabel{uilogin}{{\caption@xref {uilogin}{ on input line 930}}{43}}
\@writefile{lof}{\contentsline {figure}{\numberline {5.15}{\ignorespaces \textit  {User Interface Login}\relax }}{43}}
\@writefile{lof}{\contentsline {figure}{\numberline {5.16}{\ignorespaces \textit  {User Interface} Halaman Utama\relax }}{44}}
\@writefile{lof}{\contentsline {figure}{\numberline {5.17}{\ignorespaces \textit  {User Interface} Data Produks\relax }}{44}}
\newlabel{halogin}{{\caption@xref {halogin}{ on input line 949}}{45}}
\@writefile{lof}{\contentsline {figure}{\numberline {5.18}{\ignorespaces Halaman \textit  {Login}\relax }}{45}}
\newlabel{halutama}{{\caption@xref {halutama}{ on input line 956}}{45}}
\@writefile{lof}{\contentsline {figure}{\numberline {5.19}{\ignorespaces Halaman Utama\relax }}{45}}
\newlabel{haldata}{{\caption@xref {haldata}{ on input line 963}}{45}}
\@writefile{lof}{\contentsline {figure}{\numberline {5.20}{\ignorespaces Halaman Data Produksi\relax }}{45}}
\newlabel{halper}{{\caption@xref {halper}{ on input line 970}}{46}}
\@writefile{lof}{\contentsline {figure}{\numberline {5.21}{\ignorespaces Halaman Perhitungan\relax }}{46}}
\newlabel{halgraf}{{\caption@xref {halgraf}{ on input line 977}}{46}}
\@writefile{lof}{\contentsline {figure}{\numberline {5.22}{\ignorespaces Halaman Grafik\relax }}{46}}
\newlabel{halpre}{{\caption@xref {halpre}{ on input line 984}}{46}}
\@writefile{lof}{\contentsline {figure}{\numberline {5.23}{\ignorespaces Halaman Prediksi\relax }}{46}}
\newlabel{halhaspre}{{\caption@xref {halhaspre}{ on input line 991}}{47}}
\@writefile{lof}{\contentsline {figure}{\numberline {5.24}{\ignorespaces Hasil Prediksi\relax }}{47}}
\@setckpt{section/chapter5}{
\setcounter{page}{48}
\setcounter{equation}{18}
\setcounter{enumi}{2}
\setcounter{enumii}{0}
\setcounter{enumiii}{0}
\setcounter{enumiv}{0}
\setcounter{footnote}{0}
\setcounter{mpfootnote}{0}
\setcounter{part}{0}
\setcounter{chapter}{5}
\setcounter{section}{5}
\setcounter{subsection}{3}
\setcounter{subsubsection}{1}
\setcounter{paragraph}{0}
\setcounter{subparagraph}{0}
\setcounter{figure}{24}
\setcounter{table}{11}
\setcounter{caption@flags}{0}
\setcounter{ContinuedFloat}{0}
\setcounter{lstnumber}{1}
\setcounter{LT@tables}{1}
\setcounter{LT@chunks}{1}
\setcounter{lstlisting}{0}
}
